﻿[
  {
    "DestroyWhenZeroQuota": true,
    "AllowExecuteTimes": 1,
    "SuccessMessage": "{Attacker}咬了咬乾乾扁扁的黑麵包，真是又乾又硬啊。",
    "ExtraInformation": "full,10",
    "Name": "Black Bread",
    "SystemCode": "HardBlackBread",
    "ShortName": "黑麵包",
    "Description": "乾乾扁扁的",
    "Unit": "一顆",
    "ObjectType": "food",
    "Weight": 1,
    "Pricing": 10
  },
  {
    "DestroyWhenZeroQuota": true,
    "AllowExecuteTimes": 1,
    "SuccessMessage": "{Attacker}一口吃掉了黑苺果，那酸爽的口感，讓整個臉都揪成了一團。",
    "ExtraInformation": "full,50",
    "Name": "Blackberry",
    "SystemCode": "JerkyBlackBerry",
    "ShortName": "黑苺果",
    "Description": "烏黑亮麗的",
    "Unit": "一顆",
    "ObjectType": "food",
    "Weight": 1,
    "Pricing": 100
  },
  {
    "DestroyWhenZeroQuota": true,
    "AllowExecuteTimes": 1,
    "SuccessMessage": "{Attacker}一口吃掉了扁扁的黑軟麵包，感覺飽了一點。",
    "ExtraInformation": "full,100",
    "Name": "Soft Black Bread",
    "SystemCode": "SoftBlackBread",
    "ShortName": "黑軟麵包",
    "Description": "扁扁的",
    "Unit": "一顆",
    "ObjectType": "food",
    "Weight": 2,
    "Pricing": 100
  }
]