﻿[
  {
    "Name": "Johnny Breslin",
    "AutoMovement": false,
    "Level": 95,
    "Race": "human",
    "Gender": "male",
    "Career": "fighter",
    "StateMax": {
      "Experience": -1,
      "HP": 999,
      "Mana": 999,
      "MV": 999
    },
    "BasicAttack": 999,
    "BasicDefence": 999,
    "Settings": {
      "Name": "約翰尼·布萊斯林",
      "Description": "滿臉鬍渣的軍官({NAME})懶懶的靠在牆邊上。",
      "DetailDescription": "看起來邋邋遢遢的，要不是身上還穿著軍服，根本就跟流浪漢一模一樣。",
      "AutoHelpFighting": false,
      "Wimpy": 0
    },
    "Coins": 0,
    "Role": "none",
    "SettingRebornTimeInSecond": 10,
    "TrainingFeeBase": 0,
    "MeetPPLActionKey": "MobActionScript",
    "AllowSellingTypes": [],
    "QuestScript": {
      "": [
        "say:呵！呵！好久沒新的人進來了。",
        "message:聲音聽起來死氣沈沈的。",
        "say:你也被困住了吧，咳！咳！",
        "message:他似乎感冒了的樣子？",
        "say:原本有門可以通往地面的，但在一次的地震之後....",
        "say:就再也打不開了....",
        "say:....",
        "say:這裏已經沒有什麼好東西了，還好不缺食物、水。",
        "say:你應該有看到一台訓練機器吧？我這裏倒是還有些銅幣，在這鬼地方也用不到。",
        "object:coin,1000,step2,NewBieJohnnyBreslin",
        "say:呆在這裏閒著也是閒著，不如去學些技能吧？。"
      ],
      "step2": [
        "say:你學好技能了嗎？",
        "say:逃跑很重要，一定要學起來。遇到打不過的敵人，",
        "say:咳！咳！",
        "say:遇到打不過的敵人，不要猶豫，跑就對了。",
        "say:要留些體力逃跑，不要等到累的沒辦法動才後悔。",
        "say:給你個好東西。",
        "object:PotionNewbieMV,step3,NewBieJohnnyBreslin"
      ],
      "step3": [
        "say:我身上光溜溜了，啥都沒有了。",
        "save:step4,NewBieJohnnyBreslin"
      ],
      "step4": [
        "say:能給的我都給你了。",
        "message:約翰尼·布萊斯林滿臉的無奈。",
        "completed:NewBieJohnnyBreslin"
      ]
    },
    "QuestScriptName": "NewBieJohnnyBreslin",
    "Murmur": [
      "鬍渣滿臉的軍官不斷地喃喃自語：什麼時候才能重見天日啊？"
    ],
    "MobSettings": {
      "AutoAttackUser": false,
      "Grudges": "reginal",
      "GrudgesMessage": ""
    },
    "PracticeSkills": [
      {
        "Skillname": "dodge",
        "Proficiency": 5
      }
    ]
  },
  {
    "Name": "Lydia Cecil",
    "AutoMovement": false,
    "Level": 95,
    "Race": "human",
    "Gender": "male",
    "Career": "thief",
    "EQArea": {},
    "StateMax": {
      "Experience": -1,
      "HP": 999,
      "Mana": 999,
      "MV": 999
    },
    "BasicAttack": 999,
    "BasicDefence": 999,
    "Settings": {
      "Name": "莉迪亞·塞西爾",
      "Description": "士兵({NAME})呆坐在地上，看著地上的螞蟻搬食物。",
      "AutoHelpFighting": false,
      "Wimpy": 20
    },
    "Coins": 0,
    "Role": "none",
    "SettingRebornTimeInSecond": 10,
    "TrainingFeeBase": 0,
    "QuestScript": {
      "step1": [
        "receive:PotionNewbieMV",
        "say:太好了，這個正是我所需要的。",
        "say:你知道的，在這裏沒有體力，只能靠自已恢復，但在這裏，到處都有危險，如何才能好好的休息啊？",
        "say:我也不平白無故拿你的東西，我這裏有個好東西，就送給你了吧。",
        "object:PointHealthByGod,,NewBieMelvilleGarcia",
        "completed:NewBieMelvilleGarcia"
      ]
    },
    "QuestScriptName": "NewBieMelvilleGarcia",
    "MobSettings": {
      "AutoAttackUser": false,
      "Grudges": "reginal"
    },
    "PracticeSkills": [
      {
        "Skillname": "dodge",
        "Proficiency": 5
      }
    ],
    "LearnedSkillSystem": []
  },
  {
    "Name": "Melville Garcia",
    "AutoMovement": false,
    "Level": 95,
    "Race": "human",
    "Gender": "male",
    "Career": "fighter",
    "EQArea": {},
    "StateMax": {
      "Experience": -1,
      "HP": 999,
      "Mana": 999,
      "MV": 999
    },
    "BasicAttack": 999,
    "BasicDefence": 999,
    "Settings": {
      "Name": "梅爾維爾·加西亞",
      "Description": "士兵({NAME})呆坐在地上，看著地上的螞蟻搬食物。",
      "AutoHelpFighting": false,
      "Wimpy": 20
    },
    "Coins": 0,
    "Role": "none",
    "SettingRebornTimeInSecond": 10,
    "TrainingFeeBase": 0,
    "MeetPPLActionKey": "MobActionScript",
    "QuestScript": {
      "": [
        "say:體力藥劑是個好東西，可以幫你恢復體力呢！",
        "save:step1,NewBieMelvilleGarcia"
      ]
    },
    "QuestScriptName": "NewBieMelvilleGarcia",
    "PracticeSkills": [
      {
        "Skillname": "dodge",
        "Proficiency": 5
      }
    ],
    "LearnedSkillSystem": []
  }
]