﻿[
  {
    "Position": "ligth",
    "Type": "none",
    "Volume": 0,
    "Range": 0,
    "Precision": 0,
    "ActionKey": "",
    "DestroyWhenZeroQuota": true,
    "AllowExecuteTimes": 1,
    "SuccessMessage": "",
    "ExtraInformation": "",
    "Name": "Torch",
    "SystemCode": "BasicTorch",
    "ShortName": "火把",
    "Description": "乾燥的",
    "DescriptionDetail": "用一堆破破爛爛的布，捆挷在一起再滴個幾滴油，一看就是個粗製濫造的工藝。",
    "Unit": "一把",
    "ObjectType": "misc",
    "Weight": 1,
    "Pricing": 10,
    "Decoration": []
  }
]