﻿[
  {
    "AcceptVerbs": "canGet, canGetFrom, canPutIn",
    "KeyNumber": 0,
    "gateStatus": "open",
    "DestroyWhenZeroQuota": true,
    "AllowExecuteTimes": 1,
    "Name": "Corpse",
    "SystemCode": "SystemOnly-Corpse",
    "Description": "斜躺在地上的是",
    "ObjectType": "misc",
    "Weight": 1,
    "Pricing": 0
  }
]