﻿[
  {
    "AcceptVerbs": "canGetFrom, canPutIn, canLock, canOpenClose",
    "KeyNumber": 1001,
    "gateStatus": "locked",
    "ContainSystemCode": [
      "BasicTorch",
      "PotionNewbieMV"
    ],
    "DestroyWhenZeroQuota": true,
    "AllowExecuteTimes": 1,
    "Name": "Box",
    "SystemCode": "1001WoodBox",
    "ShortName": "盒子",
    "Description": "木製的",
    "Unit": "一只",
    "ObjectType": "misc",
    "Weight": 1,
    "Pricing": 0
  },
  {
    "AcceptVerbs": "canDrop, canGet",
    "KeyNumber": 1001,
    "gateStatus": "open",
    "DestroyWhenZeroQuota": true,
    "AllowExecuteTimes": 1,
    "Name": "Key",
    "SystemCode": "1001WoodKey",
    "ShortName": "鑰匙",
    "Description": "木製的",
    "Unit": "一把",
    "ObjectType": "misc",
    "Weight": 1,
    "Pricing": 0
  },
  {
    "AcceptVerbs": "canDrop, canGet",
    "KeyNumber": 2001,
    "gateStatus": "open",
    "DestroyWhenZeroQuota": true,
    "AllowExecuteTimes": 1,
    "Name": "Card",
    "SystemCode": "2001BeeBeeCard",
    "ShortName": "嗶嗶卡",
    "Description": "輕薄短小的",
    "Unit": "一張",
    "ObjectType": "misc",
    "Weight": 1,
    "Pricing": 0
  }
]